IS415-GAA – take_home_ex02
…
Joining the data of filtered village and dengue

dengue_filtered

# A tibble: 25,475 × 3
   transmit_date lng           lat         
   <date>        <chr>         <chr>       
 1 2023-07-30    120.220182286 22.976075790
 2 2023-07-30    120.218036763 22.980068070
 3 2023-07-30    120.235449178 23.013736726
 4 2023-07-30    120.245579790 23.019322681
 5 2023-07-30    120.246524983 23.018206041
 6 2023-07-30    120.226597184 23.016947543
 7 2023-07-30    120.459990679 23.599175697
 8 2023-07-30    120.234949811 23.015998065
 9 2023-07-30    120.234949811 23.015998065
10 2023-07-30    120.247723767 23.011129228
# ℹ 25,465 more rows
…
What does this tell us?

Creating Lisa cluster map

Plotting Moran Scatter Plot

lisa <- unnest(localMoran)

Warning: `cols` is now required when using `unnest()`.
ℹ Please use `cols = c()`.

lisa

# A tibble: 257 × 12
        ii       eii  var_ii    z_ii    p_ii p_ii_sim p_folded_sim skewness
     <dbl>     <dbl>   <dbl>   <dbl>   <dbl>    <dbl>        <dbl>    <dbl>
 1  1.40   -0.0798   0.618    1.89   0.0591      0.02         0.01  -0.862 
 2  0.757  -0.0270   0.154    2.00   0.0456      0.04         0.02  -0.590 
 3  0.0349  0.0213   0.0493   0.0611 0.951       0.92         0.46   0.0879
 4 -0.214   0.0247   0.0838  -0.826  0.409       0.36         0.18  -0.539 
 5  1.43    0.00382  0.308    2.57   0.0101      0.02         0.01  -0.377 
 6  1.30    0.0168   0.204    2.83   0.00462     0.02         0.01  -0.655 
 7  0.326  -0.000292 0.0960   1.05   0.292       0.32         0.16  -0.839 
 8  0.0206 -0.0321   0.0170   0.404  0.686       0.68         0.34  -0.211 
 9  0.403   0.0136   0.0791   1.38   0.166       0.18         0.09   0.520 
10  0.0864  0.00637  0.00325  1.40   0.160       0.1          0.05  -0.722 
# ℹ 247 more rows
# ℹ 4 more variables: kurtosis <dbl>, mean <fct>, median <fct>, pysal <fct>
…
